{
  "code": 200,
  "meta": {
    "pagination": {
      "total": 1497,
      "pages": 75,
      "page": 75,
      "limit": 20
    }
  },
  "data": [
    {
      "id": 88,
      "name": "Dawid",
      "email": "prajapat_lila@sanford.com",
      "gender": "Female",
      "status": "Active",
      "created_at": "2021-02-12T03:50:05.863+05:30",
      "updated_at": "2021-02-13T01:02:34.143+05:30"
    },
    {
      "id": 89,
      "name": "Ranjeet Mukhopadhyay",
      "email": "ranjeet_mukhopadhyay@conroy.biz",
      "gender": "Male",
      "status": "Active",
      "created_at": "2021-02-12T03:50:05.888+05:30",
      "updated_at": "2021-02-12T03:50:05.888+05:30"
    },
    {
      "id": 90,
      "name": "Dr. Swarnalata Sinha",
      "email": "sinha_dr_swarnalata@cummerata.org",
      "gender": "Male",
      "status": "Active",
      "created_at": "2021-02-12T03:50:05.891+05:30",
      "updated_at": "2021-02-12T03:50:05.891+05:30"
    },
    {
      "id": 91,
      "name": "Prathamesh Singh",
      "email": "prathamesh_singh@kling.io",
      "gender": "Male",
      "status": "Active",
      "created_at": "2021-02-12T03:50:05.977+05:30",
      "updated_at": "2021-02-12T03:50:05.977+05:30"
    },
    {
      "id": 92,
      "name": "Deepesh Abbott",
      "email": "deepesh_abbott@murazik-kautzer.info",
      "gender": "Female",
      "status": "Active",
      "created_at": "2021-02-12T03:50:05.980+05:30",
      "updated_at": "2021-02-12T03:50:05.980+05:30"
    },
    {
      "id": 93,
      "name": "Opalina Menon",
      "email": "menon_opalina@jacobson.org",
      "gender": "Male",
      "status": "Active",
      "created_at": "2021-02-12T03:50:05.990+05:30",
      "updated_at": "2021-02-12T03:50:05.990+05:30"
    },
    {
      "id": 94,
      "name": "Aanand Ganaka",
      "email": "aanand_ganaka@langworth.com",
      "gender": "Female",
      "status": "Active",
      "created_at": "2021-02-12T03:50:05.996+05:30",
      "updated_at": "2021-02-12T03:50:05.996+05:30"
    },
    {
      "id": 95,
      "name": "Bhooshan Malik",
      "email": "bhooshan_malik@thiel.co",
      "gender": "Female",
      "status": "Active",
      "created_at": "2021-02-12T03:50:06.015+05:30",
      "updated_at": "2021-02-12T03:50:06.015+05:30"
    },
    {
      "id": 96,
      "name": "Karunanidhi Trivedi",
      "email": "trivedi_karunanidhi@wyman-crona.co",
      "gender": "Male",
      "status": "Active",
      "created_at": "2021-02-12T03:50:06.041+05:30",
      "updated_at": "2021-02-12T03:50:06.041+05:30"
    },
    {
      "id": 97,
      "name": "Ajit Devar IV",
      "email": "iv_ajit_devar@schiller-kozey.name",
      "gender": "Female",
      "status": "Active",
      "created_at": "2021-02-12T03:50:06.052+05:30",
      "updated_at": "2021-02-12T03:50:06.052+05:30"
    },
    {
      "id": 98,
      "name": "Nikita Arora",
      "email": "arora_nikita@beer-balistreri.biz",
      "gender": "Female",
      "status": "Active",
      "created_at": "2021-02-12T03:50:06.075+05:30",
      "updated_at": "2021-02-12T03:50:06.075+05:30"
    },
    {
      "id": 99,
      "name": "Atreyee Khan",
      "email": "khan_atreyee@prosacco-ullrich.co",
      "gender": "Female",
      "status": "Inactive",
      "created_at": "2021-02-12T03:50:06.093+05:30",
      "updated_at": "2021-02-12T03:50:06.093+05:30"
    },
    {
      "id": 101,
      "name": "Leela Menon",
      "email": "menon_leela@altenwerth-bins.net",
      "gender": "Female",
      "status": "Active",
      "created_at": "2021-02-12T03:50:06.106+05:30",
      "updated_at": "2021-02-12T03:50:06.106+05:30"
    },
    {
      "id": 102,
      "name": "Chidaatma Desai",
      "email": "chidaatma_desai@hilpert.io",
      "gender": "Male",
      "status": "Inactive",
      "created_at": "2021-02-12T03:50:06.133+05:30",
      "updated_at": "2021-02-12T03:50:06.133+05:30"
    },
    {
      "id": 104,
      "name": "Anything",
      "email": "talwar_kama_phd@willms.org",
      "gender": "Female",
      "status": "Inactive",
      "created_at": "2021-02-12T03:50:06.182+05:30",
      "updated_at": "2021-02-12T12:29:27.257+05:30"
    },
    {
      "id": 105,
      "name": "Upendra Marar",
      "email": "upendra_marar@hansen.org",
      "gender": "Female",
      "status": "Active",
      "created_at": "2021-02-12T03:50:06.206+05:30",
      "updated_at": "2021-02-12T03:50:06.206+05:30"
    },
    {
      "id": 106,
      "name": "Prof. Goswami Tagore",
      "email": "tagore_prof_goswami@hammes-bogan.org",
      "gender": "Female",
      "status": "Inactive",
      "created_at": "2021-02-12T03:50:06.209+05:30",
      "updated_at": "2021-02-12T03:50:06.209+05:30"
    },
    {
      "id": 107,
      "name": "Devi Sharma II",
      "email": "devi_ii_sharma@jenkins-hammes.io",
      "gender": "Male",
      "status": "Active",
      "created_at": "2021-02-12T03:50:06.220+05:30",
      "updated_at": "2021-02-12T03:50:06.220+05:30"
    },
    {
      "id": 108,
      "name": "Amarnath Pandey",
      "email": "pandey_amarnath@goodwin.io",
      "gender": "Male",
      "status": "Inactive",
      "created_at": "2021-02-12T03:50:06.223+05:30",
      "updated_at": "2021-02-12T03:50:06.223+05:30"
    },
    {
      "id": 109,
      "name": "Abani Mehrotra",
      "email": "abani_mehrotra@steuber-goyette.com",
      "gender": "Female",
      "status": "Inactive",
      "created_at": "2021-02-12T03:50:06.226+05:30",
      "updated_at": "2021-02-12T03:50:06.226+05:30"
    }
  ]
}